<svg xmlns="http://www.w3.org/2000/svg" width="26" height="26" viewBox="0 0 26 26">
    <g fill="#FFF" fill-rule="nonzero">
        <path d="M13.305 2.59c3.31 0 3.704.009 5.012.07 1.212.053 1.862.263 2.3.43.58.228.993.5 1.423.939.43.439.702.86.93 1.448.167.448.37 1.115.43 2.343.062 1.334.07 1.729.07 5.099s-.008 3.765-.07 5.099c-.052 1.228-.254 1.895-.43 2.343-.228.588-.491 1.01-.93 1.448a3.8 3.8 0 0 1-1.422.939c-.44.176-1.098.377-2.3.43-1.309.061-1.704.07-5.013.07-3.31 0-3.705-.009-5.013-.07-1.212-.053-1.862-.263-2.3-.43a3.8 3.8 0 0 1-1.423-.939 3.989 3.989 0 0 1-.93-1.448c-.167-.448-.369-1.115-.43-2.343-.062-1.334-.07-1.73-.07-5.099 0-3.37.008-3.765.07-5.099.052-1.228.254-1.895.43-2.343.228-.588.491-1.01.93-1.448a3.8 3.8 0 0 1 1.422-.939c.44-.176 1.098-.377 2.3-.43 1.309-.053 1.704-.07 5.014-.07zm0-2.273c-3.372 0-3.793.017-5.11.079-1.317.061-2.221.272-3.011.588A6.041 6.041 0 0 0 2.989 2.44a6.116 6.116 0 0 0-1.431 2.237c-.307.799-.518 1.72-.58 3.063-.06 1.343-.07 1.773-.07 5.196 0 3.422.018 3.852.07 5.195.062 1.343.273 2.255.58 3.063a6.188 6.188 0 0 0 1.431 2.238 6.116 6.116 0 0 0 2.195 1.456c.79.316 1.694.527 3.011.588 1.326.062 1.747.08 5.11.08 3.362 0 3.792-.018 5.109-.08 1.317-.061 2.221-.272 3.011-.588a6.041 6.041 0 0 0 2.195-1.456 6.116 6.116 0 0 0 1.431-2.238c.307-.799.518-1.72.58-3.063.061-1.343.07-1.773.07-5.195 0-3.423-.018-3.853-.07-5.196-.062-1.343-.273-2.255-.58-3.063a6.188 6.188 0 0 0-1.43-2.237A6.116 6.116 0 0 0 21.424.984c-.79-.316-1.694-.527-3.011-.588-1.317-.062-1.747-.08-5.11-.08z"/>
        <path d="M13.305 6.451c-3.52 0-6.365 2.896-6.365 6.477 0 3.58 2.853 6.476 6.365 6.476 3.511 0 6.364-2.896 6.364-6.476S16.816 6.45 13.305 6.45zm0 10.68c-2.283 0-4.135-1.878-4.135-4.203 0-2.326 1.852-4.204 4.135-4.204 2.282 0 4.135 1.878 4.135 4.204 0 2.325-1.853 4.203-4.135 4.203zm6.62-9.425c-.82 0-1.485-.676-1.485-1.51 0-.833.665-1.509 1.484-1.509.82 0 1.484.676 1.484 1.51 0 .833-.665 1.51-1.484 1.51z"/>
    </g>
</svg>
