<svg xmlns="http://www.w3.org/2000/svg" width="22" height="17" viewBox="0 0 22 17">
    <path fill="#111" fill-rule="nonzero" d="M2.112 5.2c-.508-.335-.987-.796-1.437-1.383C.225 3.23 0 2.684 0 2.18 0 1.558.17 1.039.51.623.85.208 1.333 0 1.963 0h18.072c.531 0 .992.188 1.38.563.39.376.584.827.584 1.354 0 .631-.2 1.235-.602 1.81A5.763 5.763 0 0 1 19.901 5.2l-5.746 3.894c-.082.056-.256.178-.522.366s-.486.34-.662.455c-.176.116-.39.246-.639.39a3.75 3.75 0 0 1-.706.323 1.99 1.99 0 0 1-.614.108h-.024c-.189 0-.393-.036-.614-.108a3.746 3.746 0 0 1-.706-.323c-.25-.144-.463-.274-.639-.39a25.512 25.512 0 0 1-.663-.455l-.521-.366c-.745-.51-1.817-1.24-3.217-2.186-1.4-.947-2.238-1.516-2.516-1.708zm18.66 1.23c.467-.318.876-.672 1.228-1.062v9.68c0 .538-.192.997-.577 1.379a1.898 1.898 0 0 1-1.387.573H1.964c-.54 0-1.002-.191-1.387-.573A1.872 1.872 0 0 1 0 15.049v-9.68c.36.398.773.751 1.24 1.06 2.963 2 4.997 3.402 6.102 4.207.466.34.845.607 1.135.798.29.191.677.386 1.16.585.483.2.933.299 1.35.299h.026c.417 0 .867-.1 1.35-.299.483-.199.87-.394 1.16-.585.29-.19.669-.457 1.136-.798 1.39-1 3.429-2.403 6.113-4.207z" opacity=".5"/>
</svg>
